,date,city,rent,product
0,2022-01-01,Isparta,12,1655
1,2022-01-02,Ardahan,13,1287
2,2022-01-03,Bilecik,5,1012
3,2022-01-04,Sivas,9,1752
4,2022-01-05,Çankırı,13,1637
5,2022-01-06,Ordu,5,1874
6,2022-01-07,İzmir,15,1179
7,2022-01-08,Kırıkkale,7,1205
8,2022-01-09,Ankara,7,1755
9,2022-01-10,Kırıkkale,8,1374
10,2022-01-11,Erzincan,7,1658
11,2022-01-12,Edirne,16,1784
12,2022-01-13,Antalya,14,1794
13,2022-01-14,Bolu,13,1310
14,2022-01-15,Bingöl,12,1014
15,2022-01-16,Manisa,12,1724
16,2022-01-17,Kütahya,4,1727
17,2022-01-18,Bayburt,15,1830
18,2022-01-19,Konya,9,1711
19,2022-01-20,Düzce,12,1749
20,2022-01-21,İzmir,12,1333
21,2022-01-22,Düzce,7,1623
22,2022-01-23,Hatay,2,1896
23,2022-01-24,Ağrı,17,1069
24,2022-01-25,Aydın,9,1145
25,2022-01-26,Denizli,5,1543
26,2022-01-27,Elazığ,14,1636
27,2022-01-28,Trabzon,4,1897
28,2022-01-29,Elazığ,10,1041
29,2022-01-30,Afyon,3,1333
30,2022-01-31,Trabzon,6,1429
31,2022-02-01,Diyarbakır,11,1775
32,2022-02-02,Bolu,10,1541
33,2022-02-03,Düzce,5,1771
34,2022-02-04,Sivas,5,1673
35,2022-02-05,Iğdır,17,1178
36,2022-02-06,Bilecik,3,1595
37,2022-02-07,Kilis,7,1390
38,2022-02-08,Yozgat,9,1632
39,2022-02-09,Ordu,15,1126
40,2022-02-10,Siirt,7,1538
41,2022-02-11,Tekirdağ,5,1506
42,2022-02-12,Ardahan,12,1609
43,2022-02-13,Kırşehir,10,1006
44,2022-02-14,Eskişehir,6,1782
45,2022-02-15,Kırıkkale,8,1792
46,2022-02-16,Yozgat,12,1971
47,2022-02-17,Uşak,15,1531
48,2022-02-18,İçel (Mersin),12,1911
49,2022-02-19,Bayburt,9,1368
50,2022-02-20,Artvin,1,1792
51,2022-02-21,Diyarbakır,16,1347
52,2022-02-22,İstanbul,14,1566
53,2022-02-23,Kars,12,1615
54,2022-02-24,Şırnak,11,1355
55,2022-02-25,Bingöl,8,1382
56,2022-02-26,Kayseri,8,1862
57,2022-02-27,Nevşehir,11,1144
58,2022-02-28,Batman,12,1299
59,2022-03-01,Giresun,5,1159
60,2022-03-02,Kayseri,7,1610
61,2022-03-03,Bursa,6,1268
62,2022-03-04,Bayburt,13,1473
63,2022-03-05,Burdur,12,1276
64,2022-03-06,Kırklareli,9,1685
65,2022-03-07,Elazığ,1,1081
66,2022-03-08,Muğla,3,1964
67,2022-03-09,Afyon,8,1973
68,2022-03-10,Gaziantep,1,1090
69,2022-03-11,Şanlıurfa,13,1190
70,2022-03-12,Tokat,3,1536
71,2022-03-13,Osmaniye,6,1070
72,2022-03-14,Gaziantep,5,1561
73,2022-03-15,Aksaray,15,1101
74,2022-03-16,Denizli,10,1703
75,2022-03-17,Bolu,3,1847
76,2022-03-18,Kastamonu,7,1370
77,2022-03-19,Erzurum,6,1282
78,2022-03-20,Rize,16,1824
79,2022-03-21,Manisa,16,1248
80,2022-03-22,Erzincan,14,1413
81,2022-03-23,Uşak,6,1575
82,2022-03-24,Kocaeli,1,1771
83,2022-03-25,Adana,7,1576
84,2022-03-26,Bursa,3,1906
85,2022-03-27,Aksaray,14,1412
86,2022-03-28,İstanbul,9,1433
87,2022-03-29,Elazığ,17,1902
88,2022-03-30,Sakarya,11,1302
89,2022-03-31,İçel (Mersin),2,1150
90,2022-04-01,Kilis,11,1597
91,2022-04-02,Sinop,5,1131
92,2022-04-03,Aksaray,14,1622
93,2022-04-04,Bilecik,16,1274
94,2022-04-05,Rize,3,1882
95,2022-04-06,Erzurum,12,1809
96,2022-04-07,Aydın,1,1522
97,2022-04-08,Samsun,16,1700
98,2022-04-09,Batman,13,1922
99,2022-04-10,Konya,14,1749
100,2022-04-11,Yozgat,3,1971
101,2022-04-12,Hakkari,9,1336
102,2022-04-13,Şırnak,15,1116
103,2022-04-14,Karabük,9,1386
104,2022-04-15,Yalova,3,1669
105,2022-04-16,Edirne,12,1813
106,2022-04-17,Kilis,9,1614
107,2022-04-18,Yozgat,7,1199
108,2022-04-19,Bilecik,10,1682
109,2022-04-20,Ardahan,5,1557
110,2022-04-21,Sivas,5,1733
111,2022-04-22,Artvin,2,1610
112,2022-04-23,Ankara,8,1048
113,2022-04-24,Gaziantep,12,1524
114,2022-04-25,Burdur,2,1280
115,2022-04-26,Çankırı,8,1736
116,2022-04-27,Zonguldak,9,1874
117,2022-04-28,İstanbul,7,1206
118,2022-04-29,Adıyaman,7,1814
119,2022-04-30,Bolu,10,1617
120,2022-05-01,Şanlıurfa,3,1102
121,2022-05-02,İçel (Mersin),2,1751
122,2022-05-03,Van,11,1667
123,2022-05-04,Trabzon,11,1571
124,2022-05-05,Bitlis,5,1658
125,2022-05-06,Erzurum,3,1724
126,2022-05-07,Çorum,11,1502
127,2022-05-08,Tunceli,9,1144
128,2022-05-09,Şırnak,16,1290
129,2022-05-10,Sakarya,5,1936
130,2022-05-11,Tekirdağ,8,1523
131,2022-05-12,Iğdır,9,1494
132,2022-05-13,Burdur,3,1531
133,2022-05-14,Samsun,3,1155
134,2022-05-15,Iğdır,13,1260
135,2022-05-16,Amasya,12,1136
136,2022-05-17,Kırıkkale,14,1254
137,2022-05-18,Muş,9,1578
138,2022-05-19,Eskişehir,6,1425
139,2022-05-20,Aksaray,11,1110
140,2022-05-21,Tekirdağ,10,1677
141,2022-05-22,Kars,14,1861
142,2022-05-23,Malatya,4,1427
143,2022-05-24,Giresun,3,1588
144,2022-05-25,Bolu,8,1828
145,2022-05-26,Sakarya,12,1978
146,2022-05-27,Van,14,1716
147,2022-05-28,Artvin,11,1163
148,2022-05-29,Artvin,2,1544
149,2022-05-30,Osmaniye,9,1148
150,2022-05-31,Osmaniye,16,1206
151,2022-06-01,Gaziantep,14,1141
152,2022-06-02,Bayburt,14,1376
153,2022-06-03,Kastamonu,12,1369
154,2022-06-04,Bursa,10,1777
155,2022-06-05,Sinop,13,1475
156,2022-06-06,Artvin,17,1086
157,2022-06-07,Kastamonu,4,1128
158,2022-06-08,Trabzon,15,1223
159,2022-06-09,Niğde,13,1856
160,2022-06-10,Denizli,11,1781
161,2022-06-11,Samsun,6,1848
162,2022-06-12,Karaman,16,1150
163,2022-06-13,Siirt,8,1829
164,2022-06-14,Çankırı,8,1893
165,2022-06-15,Erzurum,4,1497
166,2022-06-16,Kırıkkale,6,1259
167,2022-06-17,Kırşehir,9,1219
168,2022-06-18,Kütahya,9,1937
169,2022-06-19,Karaman,13,1183
170,2022-06-20,Bolu,11,1761
171,2022-06-21,Iğdır,10,1235
172,2022-06-22,Diyarbakır,11,1051
173,2022-06-23,Malatya,14,1459
174,2022-06-24,Iğdır,13,1230
175,2022-06-25,Hakkari,12,1406
176,2022-06-26,Eskişehir,14,1747
177,2022-06-27,Kütahya,14,1051
178,2022-06-28,Muş,5,1079
179,2022-06-29,Ordu,11,1219
180,2022-06-30,Kırşehir,12,1888
181,2022-07-01,Gümüşhane,8,1888
182,2022-07-02,Gümüşhane,17,1010
183,2022-07-03,Van,10,1027
184,2022-07-04,Kahramanmaraş,16,1581
185,2022-07-05,Çorum,10,1100
186,2022-07-06,Gaziantep,12,1748
187,2022-07-07,Antalya,14,1646
188,2022-07-08,Kahramanmaraş,8,1236
189,2022-07-09,Van,8,1750
190,2022-07-10,Kütahya,3,1267
191,2022-07-11,İstanbul,16,1839
192,2022-07-12,Rize,15,1698
193,2022-07-13,Bolu,9,1504
194,2022-07-14,Ordu,6,1343
195,2022-07-15,Tunceli,11,1717
196,2022-07-16,Balıkesir,7,1946
197,2022-07-17,Giresun,15,1678
198,2022-07-18,Sinop,9,1306
199,2022-07-19,Artvin,2,1127
200,2022-07-20,Denizli,3,1452
201,2022-07-21,Çankırı,15,1213
202,2022-07-22,Eskişehir,9,1663
203,2022-07-23,Çankırı,6,1609
204,2022-07-24,Burdur,3,1459
205,2022-07-25,Bartın,6,1641
206,2022-07-26,Tekirdağ,17,1438
207,2022-07-27,Muğla,15,1026
208,2022-07-28,Balıkesir,15,1015
209,2022-07-29,Kırıkkale,2,1805
210,2022-07-30,Siirt,6,1981
211,2022-07-31,Gaziantep,7,1136
212,2022-08-01,Bilecik,11,1741
213,2022-08-02,Kırklareli,13,1712
214,2022-08-03,Iğdır,12,1689
215,2022-08-04,Yalova,16,1591
216,2022-08-05,Kırklareli,2,1094
217,2022-08-06,Erzurum,6,1959
218,2022-08-07,Adana,5,1029
219,2022-08-08,Bartın,10,1653
220,2022-08-09,Çorum,12,1378
221,2022-08-10,Adıyaman,13,1130
222,2022-08-11,İzmir,11,1216
223,2022-08-12,Zonguldak,13,1885
224,2022-08-13,Giresun,11,1912
225,2022-08-14,Osmaniye,5,1647
226,2022-08-15,Batman,10,1558
227,2022-08-16,Hakkari,15,1414
228,2022-08-17,İçel (Mersin),11,1713
229,2022-08-18,Muğla,3,1929
230,2022-08-19,Tekirdağ,14,1383
231,2022-08-20,Adana,4,1821
232,2022-08-21,Amasya,13,1068
233,2022-08-22,Çanakkale,14,1912
234,2022-08-23,Kilis,13,1336
235,2022-08-24,Elazığ,13,1477
236,2022-08-25,Batman,6,1054
237,2022-08-26,Batman,6,1210
238,2022-08-27,Gümüşhane,15,1260
239,2022-08-28,Bolu,13,1251
240,2022-08-29,Gaziantep,4,1254
241,2022-08-30,Gümüşhane,10,1666
242,2022-08-31,Hakkari,1,1064
243,2022-09-01,Kilis,15,1526
244,2022-09-02,Erzurum,13,1935
245,2022-09-03,Eskişehir,9,1237
246,2022-09-04,Kocaeli,7,1185
247,2022-09-05,Niğde,3,1022
248,2022-09-06,Eskişehir,6,1325
249,2022-09-07,Aydın,10,1128
250,2022-09-08,Yalova,8,1623
251,2022-09-09,Kocaeli,7,1793
252,2022-09-10,Antalya,8,1717
253,2022-09-11,Ordu,3,1929
254,2022-09-12,Isparta,10,1681
255,2022-09-13,Uşak,1,1864
256,2022-09-14,Eskişehir,17,1934
257,2022-09-15,Gümüşhane,8,1378
258,2022-09-16,Kırşehir,16,1886
259,2022-09-17,Şanlıurfa,5,1235
260,2022-09-18,Hakkari,12,1429
261,2022-09-19,Karaman,3,1765
262,2022-09-20,Karaman,9,1150
263,2022-09-21,Gümüşhane,8,1417
264,2022-09-22,Ağrı,2,1632
265,2022-09-23,Tokat,6,1974
266,2022-09-24,Uşak,14,1860
267,2022-09-25,Uşak,15,1619
268,2022-09-26,Kütahya,13,1725
269,2022-09-27,Aydın,10,1424
270,2022-09-28,Nevşehir,6,1049
271,2022-09-29,Aydın,10,1162
272,2022-09-30,İzmir,5,1308
273,2022-10-01,Mardin,3,1516
274,2022-10-02,Şırnak,4,1423
275,2022-10-03,Kayseri,11,1560
276,2022-10-04,Rize,7,1125
277,2022-10-05,Niğde,6,1039
278,2022-10-06,Aydın,9,1209
279,2022-10-07,Afyon,2,1912
280,2022-10-08,Konya,17,1719
281,2022-10-09,Trabzon,14,1602
282,2022-10-10,Nevşehir,11,1852
283,2022-10-11,Bartın,4,1274
284,2022-10-12,Gaziantep,17,1041
285,2022-10-13,Kilis,9,1342
286,2022-10-14,Ardahan,17,1084
287,2022-10-15,Bolu,16,1401
288,2022-10-16,Tunceli,15,1607
289,2022-10-17,İzmir,5,1471
290,2022-10-18,Kastamonu,13,1424
291,2022-10-19,Erzurum,9,1477
292,2022-10-20,Van,2,1632
293,2022-10-21,Diyarbakır,3,1984
294,2022-10-22,Isparta,7,1956
295,2022-10-23,Kırıkkale,14,1642
296,2022-10-24,Gaziantep,4,1096
297,2022-10-25,Karaman,8,1006
298,2022-10-26,Tekirdağ,2,1132
299,2022-10-27,Iğdır,4,1904
300,2022-10-28,Diyarbakır,15,1895
301,2022-10-29,Kırşehir,1,1974
302,2022-10-30,Elazığ,15,1944
303,2022-10-31,Ankara,10,1144
304,2022-11-01,Şırnak,5,1637
305,2022-11-02,Aksaray,6,1306
306,2022-11-03,Kastamonu,3,1660
307,2022-11-04,Muş,4,1243
308,2022-11-05,Eskişehir,2,1834
309,2022-11-06,Ordu,16,1315
310,2022-11-07,Siirt,8,1647
311,2022-11-08,Kilis,4,1714
312,2022-11-09,Bursa,3,1820
313,2022-11-10,Hakkari,11,1333
314,2022-11-11,Yalova,9,1758
315,2022-11-12,Kayseri,11,1792
316,2022-11-13,Giresun,15,1053
317,2022-11-14,Malatya,8,1795
318,2022-11-15,Kastamonu,2,1080
319,2022-11-16,Aksaray,12,1030
320,2022-11-17,Aydın,3,1775
321,2022-11-18,Adana,5,1193
322,2022-11-19,Rize,6,1418
323,2022-11-20,Kayseri,3,1731
324,2022-11-21,İstanbul,14,1115
325,2022-11-22,Erzurum,2,1525
326,2022-11-23,Kilis,3,1306
327,2022-11-24,Eskişehir,3,1060
328,2022-11-25,Sinop,1,1176
329,2022-11-26,Adana,10,1578
330,2022-11-27,Şırnak,17,1003
331,2022-11-28,İstanbul,8,1638
332,2022-11-29,Ağrı,15,1914
333,2022-11-30,Hatay,6,1523
334,2022-12-01,Edirne,6,1958
335,2022-12-02,Osmaniye,16,1632
336,2022-12-03,İstanbul,11,1048
337,2022-12-04,Uşak,14,1188
338,2022-12-05,Kilis,12,1487
339,2022-12-06,Amasya,3,1506
340,2022-12-07,Malatya,4,1763
341,2022-12-08,Bayburt,2,1675
342,2022-12-09,Muğla,5,1236
343,2022-12-10,Bartın,4,1105
344,2022-12-11,Hakkari,1,1098
345,2022-12-12,Amasya,8,1354
346,2022-12-13,Amasya,14,1647
347,2022-12-14,Tekirdağ,14,1328
348,2022-12-15,Ağrı,3,1121
349,2022-12-16,Kilis,10,1682
350,2022-12-17,Karaman,2,1550
351,2022-12-18,Elazığ,12,1753
352,2022-12-19,Erzincan,12,1454
353,2022-12-20,Erzurum,16,1845
354,2022-12-21,Trabzon,13,1955
355,2022-12-22,Hakkari,2,1218
356,2022-12-23,Tekirdağ,11,1132
357,2022-12-24,Tekirdağ,13,1709
358,2022-12-25,Çankırı,7,1868
359,2022-12-26,Çankırı,9,1863
360,2022-12-27,Amasya,12,1402
361,2022-12-28,Kırıkkale,10,1354
362,2022-12-29,Burdur,15,1673
363,2022-12-30,Muğla,17,1181
